{
  "files": {
    "main.css": "/static/css/main.3e37ffa6.chunk.css",
    "main.js": "/static/js/main.2538986c.chunk.js",
    "main.js.map": "/static/js/main.2538986c.chunk.js.map",
    "runtime-main.js": "/static/js/runtime-main.215681fa.js",
    "runtime-main.js.map": "/static/js/runtime-main.215681fa.js.map",
    "static/css/2.51182cc6.chunk.css": "/static/css/2.51182cc6.chunk.css",
    "static/js/2.8eb8db44.chunk.js": "/static/js/2.8eb8db44.chunk.js",
    "static/js/2.8eb8db44.chunk.js.map": "/static/js/2.8eb8db44.chunk.js.map",
    "index.html": "/index.html",
    "precache-manifest.cd80e7c1be480f9526af51a636be7718.js": "/precache-manifest.cd80e7c1be480f9526af51a636be7718.js",
    "service-worker.js": "/service-worker.js",
    "static/css/2.51182cc6.chunk.css.map": "/static/css/2.51182cc6.chunk.css.map",
    "static/css/main.3e37ffa6.chunk.css.map": "/static/css/main.3e37ffa6.chunk.css.map"
  },
  "entrypoints": [
    "static/js/runtime-main.215681fa.js",
    "static/css/2.51182cc6.chunk.css",
    "static/js/2.8eb8db44.chunk.js",
    "static/css/main.3e37ffa6.chunk.css",
    "static/js/main.2538986c.chunk.js"
  ]
}